{
  "bcat": [],
  "cur": ["RUB"],
  "id": "0db86906-b5dd-4b46-8079-bbdaf0b3dd9f",
  "imp": [{
    "banner": {
      "battr": [],
      "h": 250,
      "pos": 1,
      "w": 300
    },
    "bidfloor": "10",
    "bidfloorcur": "RUB",
    "ext": {
      "attrfloor": [{
        "12": 12.87143
      }]
    },
    "id": "1"
  }],
  "site": {
    "cat": ["IAB12"],
    "domain": "",
    "ext": {
      "altcat": [],
      "place_id": 139289
    },
    "id": "21093",
    "name": "wow-impulse.ru",
    "page": "",
    "publisher": {
      "id": "33854"
    },
    "sectioncat": [""]
  },
  "user": {
    "buyeruid": "u0c942568885d",
    "id": "936ba3db-d4e5-4ab6-853f-da66d515de67"
  },
  "wseat": []
}